{
	"selectedItem": {
		"name": "selectedItem",
		"type": "string",
		"isList": false,
		"owner": "Page",
		"dataSet": {
			"name": "",
			"price": "",
			"description": "",
			"imgUrl": "",
			"availability": ""
		},
		"dataBinding": {
			"dataValue": ""
		},
		"saveInPhonegap": false,
		"category": "wm.Variable",
		"_id": "wm-wm.Variable1394789038701"
	}
}