{
	"ProductLiveVariable1": {
		"name": "ProductLiveVariable1",
		"type": "Product",
		"isList": true,
		"owner": "Page",
		"dataSet": {
			"dataValue": ""
		},
		"dataBinding": {
		},
		"saveInPhonegap": false,
		"operation": "read",
		"liveSource": "eshopping",
		"firstRow": 0,
		"maxResults": 10,
		"designMaxResults": 5,
		"ignoreCase": false,
		"matchMode": "start",
		"autoUpdate": true,
		"startUpdate": true,
		"category": "wm.LiveVariable",
		"_id": "wm-wm.LiveVariable1399289318959",
		"package": "com.eshopping.data.Product",
		"propertiesMap": {
			"columns": [{
				"type": "string",
				"fullyQualifiedType": "string",
				"isPrimaryKey": false,
				"notNull": "true",
				"length": "null",
				"precision": "null",
				"generator": null,
				"isRelated": false,
				"fieldName": "imgUrl",
				"columnName": "IMG_URL"
			}, {
				"type": "integer",
				"fullyQualifiedType": "integer",
				"isPrimaryKey": true,
				"notNull": "true",
				"length": "null",
				"precision": "null",
				"generator": "identity",
				"isRelated": false,
				"fieldName": "id",
				"columnName": "ID"
			}, {
				"type": "string",
				"fullyQualifiedType": "string",
				"isPrimaryKey": false,
				"notNull": "true",
				"length": "null",
				"precision": "null",
				"generator": null,
				"isRelated": false,
				"fieldName": "category",
				"columnName": "CATEGORY"
			}, {
				"type": "double",
				"fullyQualifiedType": "double",
				"isPrimaryKey": false,
				"notNull": "true",
				"length": "null",
				"precision": "null",
				"generator": null,
				"isRelated": false,
				"fieldName": "price",
				"columnName": "PRICE"
			}, {
				"type": "string",
				"fullyQualifiedType": "string",
				"isPrimaryKey": false,
				"notNull": "true",
				"length": "null",
				"precision": "null",
				"generator": null,
				"isRelated": false,
				"fieldName": "description",
				"columnName": "DESCRIPTION"
			}, {
				"type": "string",
				"fullyQualifiedType": "string",
				"isPrimaryKey": false,
				"notNull": "true",
				"length": "null",
				"precision": "null",
				"generator": null,
				"isRelated": false,
				"fieldName": "name",
				"columnName": "NAME"
			}, {
				"type": "boolean",
				"fullyQualifiedType": "boolean",
				"isPrimaryKey": false,
				"notNull": "true",
				"length": "null",
				"precision": "null",
				"generator": null,
				"isRelated": false,
				"fieldName": "availability",
				"columnName": "AVAILABILITY"
			}],
			"entityName": "Product",
			"fullyQualifiedName": "com.eshopping.data.Product"
		},
		"tableName": "PRODUCT"
	},
	"UserLiveVariable1": {
		"name": "UserLiveVariable1",
		"type": "User",
		"isList": true,
		"owner": "Page",
		"dataSet": {
			"dataValue": ""
		},
		"dataBinding": {
		},
		"saveInPhonegap": false,
		"operation": "read",
		"liveSource": "eshopping",
		"firstRow": 0,
		"maxResults": 10,
		"designMaxResults": 5,
		"ignoreCase": false,
		"matchMode": "start",
		"autoUpdate": true,
		"startUpdate": true,
		"category": "wm.LiveVariable",
		"_id": "wm-wm.LiveVariable1399289319197",
		"package": "com.eshopping.data.User",
		"propertiesMap": {
			"columns": [{
				"type": "integer",
				"fullyQualifiedType": "integer",
				"isPrimaryKey": false,
				"notNull": "true",
				"length": "null",
				"precision": "null",
				"generator": null,
				"isRelated": false,
				"fieldName": "phone",
				"columnName": "PHONE"
			}, {
				"type": "string",
				"fullyQualifiedType": "string",
				"isPrimaryKey": false,
				"notNull": "true",
				"length": "null",
				"precision": "null",
				"generator": null,
				"isRelated": false,
				"fieldName": "street",
				"columnName": "STREET"
			}, {
				"type": "string",
				"fullyQualifiedType": "string",
				"isPrimaryKey": false,
				"notNull": "true",
				"length": "null",
				"precision": "null",
				"generator": null,
				"isRelated": false,
				"fieldName": "password",
				"columnName": "PASSWORD"
			}, {
				"type": "string",
				"fullyQualifiedType": "string",
				"isPrimaryKey": false,
				"notNull": "true",
				"length": "null",
				"precision": "null",
				"generator": null,
				"isRelated": false,
				"fieldName": "productBought",
				"columnName": "PRODUCT_BOUGHT"
			}, {
				"type": "string",
				"fullyQualifiedType": "string",
				"isPrimaryKey": false,
				"notNull": "true",
				"length": "null",
				"precision": "null",
				"generator": null,
				"isRelated": false,
				"fieldName": "city",
				"columnName": "CITY"
			}, {
				"type": "string",
				"fullyQualifiedType": "string",
				"isPrimaryKey": false,
				"notNull": "true",
				"length": "null",
				"precision": "null",
				"generator": null,
				"isRelated": false,
				"fieldName": "country",
				"columnName": "COUNTRY"
			}, {
				"type": "integer",
				"fullyQualifiedType": "integer",
				"isPrimaryKey": true,
				"notNull": "true",
				"length": "null",
				"precision": "null",
				"generator": "identity",
				"isRelated": false,
				"fieldName": "id",
				"columnName": "ID"
			}, {
				"type": "string",
				"fullyQualifiedType": "string",
				"isPrimaryKey": false,
				"notNull": "true",
				"length": "null",
				"precision": "null",
				"generator": null,
				"isRelated": false,
				"fieldName": "landmark",
				"columnName": "LANDMARK"
			}, {
				"type": "string",
				"fullyQualifiedType": "string",
				"isPrimaryKey": false,
				"notNull": "true",
				"length": "null",
				"precision": "null",
				"generator": null,
				"isRelated": false,
				"fieldName": "email",
				"columnName": "EMAIL"
			}, {
				"type": "string",
				"fullyQualifiedType": "string",
				"isPrimaryKey": false,
				"notNull": "true",
				"length": "null",
				"precision": "null",
				"generator": null,
				"isRelated": false,
				"fieldName": "pin",
				"columnName": "PIN"
			}, {
				"type": "string",
				"fullyQualifiedType": "string",
				"isPrimaryKey": false,
				"notNull": "true",
				"length": "null",
				"precision": "null",
				"generator": null,
				"isRelated": false,
				"fieldName": "name",
				"columnName": "NAME"
			}],
			"entityName": "User",
			"fullyQualifiedName": "com.eshopping.data.User"
		},
		"tableName": "USER"
	},
	"ProductorderLiveVariable1": {
		"name": "ProductorderLiveVariable1",
		"type": "Productorder",
		"isList": true,
		"owner": "Page",
		"dataSet": {
			"dataValue": ""
		},
		"dataBinding": {
			"id": "",
			"status": "",
			"user_id": ""
		},
		"saveInPhonegap": false,
		"operation": "read",
		"liveSource": "eshopping",
		"firstRow": 0,
		"maxResults": 10,
		"designMaxResults": 5,
		"ignoreCase": false,
		"matchMode": "start",
		"autoUpdate": true,
		"startUpdate": true,
		"category": "wm.LiveVariable",
		"_id": "wm-wm.LiveVariable1399289319121",
		"package": "com.eshopping.data.Productorder",
		"properties": ["user"],
		"relatedTables": [{
			"type": "User",
			"package": "com.eshopping.data.User"
		}],
		"propertiesMap": {
			"columns": [{
				"type": "integer",
				"fullyQualifiedType": "integer",
				"isPrimaryKey": true,
				"notNull": "true",
				"length": "null",
				"precision": "null",
				"generator": "identity",
				"isRelated": false,
				"fieldName": "id",
				"columnName": "ID"
			}, {
				"type": "string",
				"fullyQualifiedType": "string",
				"isPrimaryKey": false,
				"notNull": "true",
				"length": "null",
				"precision": "null",
				"generator": null,
				"isRelated": false,
				"fieldName": "status",
				"columnName": "STATUS"
			}, {
				"type": "User",
				"fullyQualifiedType": "com.eshopping.data.User",
				"relatedTableColumnName": "USER_ID",
				"isRelated": true,
				"relatedTableName": "USER",
				"columns": [{
					"type": "integer",
					"fullyQualifiedType": "integer",
					"isPrimaryKey": false,
					"notNull": "true",
					"length": "null",
					"precision": "null",
					"generator": null,
					"isRelated": false,
					"fieldName": "phone",
					"columnName": "PHONE"
				}, {
					"type": "string",
					"fullyQualifiedType": "string",
					"isPrimaryKey": false,
					"notNull": "true",
					"length": "null",
					"precision": "null",
					"generator": null,
					"isRelated": false,
					"fieldName": "street",
					"columnName": "STREET"
				}, {
					"type": "string",
					"fullyQualifiedType": "string",
					"isPrimaryKey": false,
					"notNull": "true",
					"length": "null",
					"precision": "null",
					"generator": null,
					"isRelated": false,
					"fieldName": "password",
					"columnName": "PASSWORD"
				}, {
					"type": "string",
					"fullyQualifiedType": "string",
					"isPrimaryKey": false,
					"notNull": "true",
					"length": "null",
					"precision": "null",
					"generator": null,
					"isRelated": false,
					"fieldName": "productBought",
					"columnName": "PRODUCT_BOUGHT"
				}, {
					"type": "string",
					"fullyQualifiedType": "string",
					"isPrimaryKey": false,
					"notNull": "true",
					"length": "null",
					"precision": "null",
					"generator": null,
					"isRelated": false,
					"fieldName": "city",
					"columnName": "CITY"
				}, {
					"type": "string",
					"fullyQualifiedType": "string",
					"isPrimaryKey": false,
					"notNull": "true",
					"length": "null",
					"precision": "null",
					"generator": null,
					"isRelated": false,
					"fieldName": "country",
					"columnName": "COUNTRY"
				}, {
					"type": "integer",
					"fullyQualifiedType": "integer",
					"isPrimaryKey": true,
					"notNull": "true",
					"length": "null",
					"precision": "null",
					"generator": "identity",
					"isRelated": false,
					"fieldName": "id",
					"columnName": "ID"
				}, {
					"type": "string",
					"fullyQualifiedType": "string",
					"isPrimaryKey": false,
					"notNull": "true",
					"length": "null",
					"precision": "null",
					"generator": null,
					"isRelated": false,
					"fieldName": "landmark",
					"columnName": "LANDMARK"
				}, {
					"type": "string",
					"fullyQualifiedType": "string",
					"isPrimaryKey": false,
					"notNull": "true",
					"length": "null",
					"precision": "null",
					"generator": null,
					"isRelated": false,
					"fieldName": "email",
					"columnName": "EMAIL"
				}, {
					"type": "string",
					"fullyQualifiedType": "string",
					"isPrimaryKey": false,
					"notNull": "true",
					"length": "null",
					"precision": "null",
					"generator": null,
					"isRelated": false,
					"fieldName": "pin",
					"columnName": "PIN"
				}, {
					"type": "string",
					"fullyQualifiedType": "string",
					"isPrimaryKey": false,
					"notNull": "true",
					"length": "null",
					"precision": "null",
					"generator": null,
					"isRelated": false,
					"fieldName": "name",
					"columnName": "NAME"
				}],
				"isList": false,
				"fieldName": "user",
				"columnName": "user"
			}],
			"entityName": "Productorder",
			"fullyQualifiedName": "com.eshopping.data.Productorder"
		},
		"filterFields": {
		},
		"tableName": "PRODUCTORDER"
	},
	"OrderdetailLiveVariable1": {
		"name": "OrderdetailLiveVariable1",
		"type": "Orderdetail",
		"isList": true,
		"owner": "Page",
		"dataSet": {
			"dataValue": ""
		},
		"dataBinding": {
			"id": "",
			"order_id": "",
			"product_id": "",
			"quantity": ""
		},
		"saveInPhonegap": false,
		"operation": "read",
		"liveSource": "eshopping",
		"firstRow": 0,
		"maxResults": 10,
		"designMaxResults": 5,
		"ignoreCase": false,
		"matchMode": "start",
		"autoUpdate": true,
		"startUpdate": true,
		"category": "wm.LiveVariable",
		"_id": "wm-wm.LiveVariable1399289319037",
		"package": "com.eshopping.data.Orderdetail",
		"properties": ["product", "productorder"],
		"relatedTables": [{
			"type": "Product",
			"package": "com.eshopping.data.Product"
		}, {
			"type": "Productorder",
			"package": "com.eshopping.data.Productorder"
		}],
		"propertiesMap": {
			"columns": [{
				"type": "Product",
				"fullyQualifiedType": "com.eshopping.data.Product",
				"relatedTableColumnName": "PRODUCT_ID",
				"isRelated": true,
				"relatedTableName": "PRODUCT",
				"columns": [{
					"type": "string",
					"fullyQualifiedType": "string",
					"isPrimaryKey": false,
					"notNull": "true",
					"length": "null",
					"precision": "null",
					"generator": null,
					"isRelated": false,
					"fieldName": "imgUrl",
					"columnName": "IMG_URL"
				}, {
					"type": "integer",
					"fullyQualifiedType": "integer",
					"isPrimaryKey": true,
					"notNull": "true",
					"length": "null",
					"precision": "null",
					"generator": "identity",
					"isRelated": false,
					"fieldName": "id",
					"columnName": "ID"
				}, {
					"type": "string",
					"fullyQualifiedType": "string",
					"isPrimaryKey": false,
					"notNull": "true",
					"length": "null",
					"precision": "null",
					"generator": null,
					"isRelated": false,
					"fieldName": "category",
					"columnName": "CATEGORY"
				}, {
					"type": "double",
					"fullyQualifiedType": "double",
					"isPrimaryKey": false,
					"notNull": "true",
					"length": "null",
					"precision": "null",
					"generator": null,
					"isRelated": false,
					"fieldName": "price",
					"columnName": "PRICE"
				}, {
					"type": "string",
					"fullyQualifiedType": "string",
					"isPrimaryKey": false,
					"notNull": "true",
					"length": "null",
					"precision": "null",
					"generator": null,
					"isRelated": false,
					"fieldName": "description",
					"columnName": "DESCRIPTION"
				}, {
					"type": "string",
					"fullyQualifiedType": "string",
					"isPrimaryKey": false,
					"notNull": "true",
					"length": "null",
					"precision": "null",
					"generator": null,
					"isRelated": false,
					"fieldName": "name",
					"columnName": "NAME"
				}, {
					"type": "boolean",
					"fullyQualifiedType": "boolean",
					"isPrimaryKey": false,
					"notNull": "true",
					"length": "null",
					"precision": "null",
					"generator": null,
					"isRelated": false,
					"fieldName": "availability",
					"columnName": "AVAILABILITY"
				}],
				"isList": false,
				"fieldName": "product",
				"columnName": "product"
			}, {
				"type": "integer",
				"fullyQualifiedType": "integer",
				"isPrimaryKey": true,
				"notNull": "true",
				"length": "null",
				"precision": "null",
				"generator": "identity",
				"isRelated": false,
				"fieldName": "id",
				"columnName": "ID"
			}, {
				"type": "Productorder",
				"fullyQualifiedType": "com.eshopping.data.Productorder",
				"relatedTableColumnName": "ORDER_ID",
				"isRelated": true,
				"relatedTableName": "PRODUCTORDER",
				"columns": [{
					"type": "integer",
					"fullyQualifiedType": "integer",
					"isPrimaryKey": true,
					"notNull": "true",
					"length": "null",
					"precision": "null",
					"generator": "identity",
					"isRelated": false,
					"fieldName": "id",
					"columnName": "ID"
				}, {
					"type": "string",
					"fullyQualifiedType": "string",
					"isPrimaryKey": false,
					"notNull": "true",
					"length": "null",
					"precision": "null",
					"generator": null,
					"isRelated": false,
					"fieldName": "status",
					"columnName": "STATUS"
				}, {
					"type": "User",
					"fullyQualifiedType": "com.eshopping.data.User",
					"relatedTableColumnName": "USER_ID",
					"isRelated": true,
					"relatedTableName": "USER",
					"fieldName": "user",
					"columnName": "user"
				}],
				"isList": false,
				"fieldName": "productorder",
				"columnName": "productorder"
			}, {
				"type": "integer",
				"fullyQualifiedType": "integer",
				"isPrimaryKey": false,
				"notNull": "true",
				"length": "null",
				"precision": "null",
				"generator": null,
				"isRelated": false,
				"fieldName": "quantity",
				"columnName": "QUANTITY"
			}],
			"entityName": "Orderdetail",
			"fullyQualifiedName": "com.eshopping.data.Orderdetail"
		},
		"filterFields": {
		},
		"tableName": "ORDERDETAIL"
	}
}